<svg xmlns="http://www.w3.org/2000/svg" width="15" height="8" viewBox="0 0 15 8">
  <defs>
    <style>
      .cls-1 {
        fill: #49743d;
      }
    </style>
  </defs>
  <title>select-arrow</title>
  <g id="Layer_2" data-name="Layer 2">
    <g id="Artwork">
      <path class="cls-1" d="M0,0H15L7.5,8Z"/>
    </g>
  </g>
</svg>
