<?xml version="1.0" encoding="utf-8"?>
<!-- Generator: Adobe Illustrator 19.2.1, SVG Export Plug-In . SVG Version: 6.00 Build 0)  -->
<svg version="1.1" id="Layer_1" xmlns="http://www.w3.org/2000/svg" xmlns:xlink="http://www.w3.org/1999/xlink" x="0px" y="0px"
	 viewBox="0 0 18 16" style="enable-background:new 0 0 18 16;" xml:space="preserve">
<style type="text/css">
	.st0{fill:#0039A6;}
</style>
<path class="st0" d="M17.3,0.1c-0.8-0.4-1.7,0.4-2.3,0.9c-1.2,1.2-2.3,2.5-3.4,3.9c-1.3,1.4-2.5,2.8-3.8,4.2c-0.8,0.7-1.6,1.6-2,2.5
	c-1.1-1.1-2.1-2.3-3.4-3.3C1.5,7.5,0,7,0,8.7c0.1,2.2,2,4.5,3.4,6C4,15.3,4.7,16,5.6,16c1.1,0.1,2.3-1.2,2.9-2
	c1.1-1.2,2.1-2.7,3.2-3.9C13,8.4,14.4,6.7,15.8,5C16.7,3.9,19.3,1.2,17.3,0.1L17.3,0.1z"/>
</svg>
